max/max.sim/sim_1/behav/xsim/dump.vcd
$date
   Fri Sep 22 00:56:01 2023
$end
$version
  2019.1
$end
$timescale
  1ps
$end
$scope module testbench $end
$var reg 1 ! clk $end
$var reg 1 " reset $end
$var reg 8 # A [7:0] $end
$var reg 1 $ A_valid $end
$var wire 8 % Max [7:0] $end
$scope module test $end
$var wire 1 & clk $end
$var wire 1 ' A_valid $end
$var wire 1 ( reset $end
$var wire 8 ) A [7:0] $end
$var wire 8 % Max [7:0] $end
$var reg 8 * max [7:0] $end
$var reg 8 + in1 [7:0] $end
$var reg 8 , in2 [7:0] $end
$var reg 8 - in3 [7:0] $end
$var reg 8 . in4 [7:0] $end
$var reg 8 / in5 [7:0] $end
$upscope $end
$upscope $end
$enddefinitions $end
#0
$dumpvars
0!
0"
b1 #
1$
b0 %
0&
1'
0(
b1 )
b0 *
b0 +
b0 ,
b0 -
b0 .
b0 /
$end
#2500
1!
1&
b0 *
b1 +
#5000
0!
b10 #
0&
b10 )
#7500
1!
b1 %
1&
b1 *
b10 +
b1 ,
#10000
0!
b1 #
0&
b1 )
#12500
1!
b10 %
1&
b10 *
b1 +
b10 ,
b1 -
#15000
0!
b10 #
0&
b10 )
#17500
1!
1&
b10 *
b10 +
b1 ,
b10 -
b1 .
#20000
0!
b11 #
0&
b11 )
#22500
1!
1&
b10 *
b11 +
b10 ,
b1 -
b10 .
b1 /
#25000
0!
b110 #
0&
b110 )
#27500
1!
b11 %
1&
b11 *
b110 +
b11 ,
b10 -
b1 .
b10 /
#30000
0!
b1 #
0&
b1 )
#32500
1!
b110 %
1&
b110 *
b1 +
b110 ,
b11 -
b10 .
b1 /
#35000
0!
b100 #
0&
b100 )
#37500
1!
1&
b110 *
b100 +
b1 ,
b110 -
b11 .
b10 /
#40000
0!
b101 #
0&
b101 )
#42500
1!
1&
b110 *
b101 +
b100 ,
b1 -
b110 .
b11 /
#45000
0!
b1 #
0&
b1 )
#47500
1!
1&
b110 *
b1 +
b101 ,
b100 -
b1 .
b110 /
#50000
0!
b100 #
0&
b100 )
#52500
1!
1&
b110 *
b100 +
b1 ,
b101 -
b100 .
b1 /
#55000
0!
b101 #
0&
b101 )
#57500
1!
b101 %
1&
b101 *
b101 +
b100 ,
b1 -
b101 .
b100 /
#60000
0!
b10 #
0&
b10 )
#62500
1!
1&
b101 *
b10 +
b101 ,
b100 -
b1 .
b101 /
#65000
0!
b10 #
0&
#67500
1!
1&
b101 *
b10 ,
b101 -
b100 .
b1 /
#70000
0!
b1 #
0&
b1 )
#72500
1!
1&
b101 *
b1 +
b10 -
b101 .
b100 /
#75000
0!
b1001 #
0&
b1001 )
#77500
1!
1&
b101 *
b1001 +
b1 ,
b10 .
b101 /
#80000
0!
1"
b0 #
0&
1(
b0 )
#82500
1!
b0 %
1&
b0 *
b0 +
b0 ,
b0 -
b0 .
b0 /
#85000
0!
0"
0&
0(
#87500
1!
1&
b0 *
#90000
0!
b101 #
0&
b101 )
#92500
1!
1&
b0 *
b101 +
